{
    "version": "https://jsonfeed.org/version/1",
    "title": "Vaayu",
    "description": "",
    "home_page_url": "https://abirmkj.gitlab.io/vaayu-web",
    "feed_url": "https://abirmkj.gitlab.io/vaayu-web/feed.json",
    "user_comment": "",
    "icon": "https://abirmkj.gitlab.io/vaayu-web/media/website/va-u_profile.png",
    "author": {
        "name": "Abir"
    },
    "items": [
        {
            "id": "https://abirmkj.gitlab.io/vaayu-web/product-description.html",
            "url": "https://abirmkj.gitlab.io/vaayu-web/product-description.html",
            "title": "Product Description",
            "summary": "This is the product page for Vä-ü - the indoor air quality&hellip;",
            "content_html": "<p>This is the product page for Vä-ü - the indoor air quality monitor</p>\n<figure class=\"post__image post__image--center\"><img loading=\"lazy\"  src=\"https://abirmkj.gitlab.io/vaayu-web/media/posts/1/under_construction_text.png\" sizes=\"(max-width: 1024px) 100vw, 1024px\" srcset=\"https://abirmkj.gitlab.io/vaayu-web/media/posts/1/responsive/under_construction_text-xs.png 300w ,https://abirmkj.gitlab.io/vaayu-web/media/posts/1/responsive/under_construction_text-sm.png 480w ,https://abirmkj.gitlab.io/vaayu-web/media/posts/1/responsive/under_construction_text-md.png 768w ,https://abirmkj.gitlab.io/vaayu-web/media/posts/1/responsive/under_construction_text-lg.png 1024w\"  alt=\"\"></figure>",
            "author": {
                "name": "Abir"
            },
            "tags": [
            ],
            "date_published": "2020-08-09T19:14:09-04:00",
            "date_modified": "2020-08-09T19:14:09-04:00"
        }
    ]
}
